{
    "Channel Bar Options": [
        {
            "name": "showHomeChannel",
            "type": "dropdown",
            "default": "Yes;No",
            "label": "Show Home in Channel Bar",
            "description": ""
        },
        {
            "name": "showCalendarChannel",
            "type": "dropdown",
            "default": "Yes;No",
            "label": "Show Calendar in Channel Bar",
            "description": ""
        },
        {
            "name": "sectionMax",
            "type": "number",
            "default": "15",
            "label": "Set Section Max",
            "description": ""
        },
        {
            "name": "hideSingleSectionDD",
            "type": "dropdown",
            "default": "Yes;No",
            "label": "Hide Single Section Dropdown",
            "description": ""
        }
    ]
}